\beamer@endinputifotherversion {3.36pt}
\beamer@sectionintoc {1}{Stati\IeC {\v c}ka analiza}{3}{0}{1}
\beamer@subsectionintoc {1}{1}{Decompile i PEView}{3}{0}{1}
\beamer@subsectionintoc {1}{2}{Importi}{5}{0}{1}
\beamer@sectionintoc {2}{Dinami\IeC {\v c}ka analiza}{6}{0}{2}
\beamer@subsectionintoc {2}{1}{Network Activity}{6}{0}{2}
\beamer@subsectionintoc {2}{2}{Registry Activity}{7}{0}{2}
\beamer@subsectionintoc {2}{3}{Process and Thread Activity}{8}{0}{2}
\beamer@subsectionintoc {2}{4}{File System Activity}{10}{0}{2}
\beamer@subsectionintoc {2}{5}{OllyDbg}{12}{0}{2}
\beamer@sectionintoc {3}{Stati\IeC {\v c}ka analiza 2}{13}{0}{3}
\beamer@subsectionintoc {3}{1}{IDA Pro}{16}{0}{3}
\beamer@subsectionintoc {3}{2}{Bernard}{17}{0}{3}
\beamer@subsectionintoc {3}{3}{mailslot/ww2}{19}{0}{3}
\beamer@sectionintoc {4}{Zaklju\IeC {\v c}ak}{20}{0}{4}
